dao\IReservationDao.class
daoimp\CarDao.class
daoimp\HibernateUtil.class
carrental\AgencyController.class
entity\Client.class
dao\IClientDao.class
service\ClientService.class
service\AgencyService.class
service\CarService.class
dao\IAgencyDao.class
carrental\ClientController.class
carrental\HelloWorldController.class
service\ReservationService.class
entity\Agency.class
daoimp\ClientDao.class
carrental\EquipmentController.class
dao\ICarDao.class
facade\IFacade.class
daoimp\AgencyDao.class
entity\Equipment.class
service\EquipmentService.class
daoimp\EquipmentDao.class
daoimp\ReservationDao.class
facade\Facade.class
carrental\ReservationController.class
dao\IEquipmentDao.class
entity\Car.class
entity\Reservation.class
carrental\CarController.class
